// Jest Snapshot v1, https://goo.gl/fbAQLP

exports[`Renders without crashing App 1`] = `ShallowWrapper {}`;

exports[`Renders without crashing DemoCard 1`] = `ShallowWrapper {}`;

exports[`Renders without crashing Demographics Instance 1`] = `ShallowWrapper {}`;

exports[`Renders without crashing Demographics Model 1`] = `ShallowWrapper {}`;

exports[`Renders without crashing Footer 1`] = `ShallowWrapper {}`;

exports[`Renders without crashing Homepage 1`] = `ShallowWrapper {}`;

exports[`Renders without crashing Nav 1`] = `ShallowWrapper {}`;

exports[`Renders without crashing Pagination 1`] = `ShallowWrapper {}`;

exports[`Renders without crashing Police Instance 1`] = `ShallowWrapper {}`;

exports[`Renders without crashing Police Model 1`] = `ShallowWrapper {}`;

exports[`Renders without crashing Social Instance 1`] = `ShallowWrapper {}`;

exports[`Renders without crashing SocialServices Model 1`] = `ShallowWrapper {}`;
